{
  "project_info": {
    "project_number": "357519892395",
    "firebase_url": "https://miproyecto-f4938.firebaseio.com",
    "project_id": "miproyecto-f4938",
    "storage_bucket": "miproyecto-f4938.appspot.com"
  },
  "client": [
    {
      "client_info": {
        "mobilesdk_app_id": "1:357519892395:android:4eb05af2ccbb88af98bcee",
        "android_client_info": {
          "package_name": "com.example.agendafirebase"
        }
      },
      "oauth_client": [
        {
          "client_id": "357519892395-enuveod5simor4vu2ad5q0ae837apocf.apps.googleusercontent.com",
          "client_type": 1,
          "android_info": {
            "package_name": "com.example.agendafirebase",
            "certificate_hash": "13f8f3fb0abbf34f2319033aa825e9d8cc68a5f8"
          }
        },
        {
          "client_id": "357519892395-10fjiudgqn685q8u03bl8focvldmh678.apps.googleusercontent.com",
          "client_type": 3
        }
      ],
      "api_key": [
        {
          "current_key": "AIzaSyD9Yg0C_ahTJ6Ns4kMPevWkzxnYAkJesQ0"
        }
      ],
      "services": {
        "appinvite_service": {
          "other_platform_oauth_client": [
            {
              "client_id": "357519892395-10fjiudgqn685q8u03bl8focvldmh678.apps.googleusercontent.com",
              "client_type": 3
            }
          ]
        }
      }
    }
  ],
  "configuration_version": "1"
}